processor/Test Files/Output Files/sample.vcd
$date
	Wed Mar 01 22:49:25 2023
$end
$version
	Icarus Verilog
$end
$timescale
	1ps
$end
$scope module Wrapper_tb $end
$var wire 32 ! instAddr [31:0] $end
$var wire 32 " memAddr [31:0] $end
$var wire 32 # memDataIn [31:0] $end
$var wire 1 $ mwe $end
$var wire 32 % rData [31:0] $end
$var wire 5 & rd [4:0] $end
$var wire 5 ' rs1 [4:0] $end
$var wire 5 ( rs2 [4:0] $end
$var wire 1 ) rwe $end
$var wire 5 * rs1_test [4:0] $end
$var wire 5 + rs1_in [4:0] $end
$var wire 32 , regB [31:0] $end
$var wire 32 - regA [31:0] $end
$var wire 32 . memDataOut [31:0] $end
$var wire 32 / instData [31:0] $end
$var reg 1 0 clock $end
$var reg 32 1 exp_result [31:0] $end
$var reg 121 2 exp_text [120:0] $end
$var reg 1 3 null $end
$var reg 8 4 num_cycles [7:0] $end
$var reg 1 5 reset $end
$var reg 1 6 testMode $end
$var reg 1 7 verify $end
$var integer 32 8 actFile [31:0] $end
$var integer 32 9 cycles [31:0] $end
$var integer 32 : diffFile [31:0] $end
$var integer 32 ; errors [31:0] $end
$var integer 32 < expFile [31:0] $end
$var integer 32 = expScan [31:0] $end
$var integer 32 > reg_to_test [31:0] $end
$scope module CPU $end
$var wire 32 ? address_dmem [31:0] $end
$var wire 32 @ address_imem [31:0] $end
$var wire 1 0 clock $end
$var wire 5 A ctrl_readRegA [4:0] $end
$var wire 5 B ctrl_readRegB [4:0] $end
$var wire 1 ) ctrl_writeEnable $end
$var wire 5 C ctrl_writeReg [4:0] $end
$var wire 32 D data [31:0] $end
$var wire 32 E data_writeReg [31:0] $end
$var wire 1 5 reset $end
$var wire 1 $ wren $end
$var wire 32 F q_imem [31:0] $end
$var wire 32 G q_dmem [31:0] $end
$var wire 32 H data_readRegB [31:0] $end
$var wire 32 I data_readRegA [31:0] $end
$upscope $end
$scope module InstMem $end
$var wire 12 J addr [11:0] $end
$var wire 1 0 clk $end
$var reg 32 K dataOut [31:0] $end
$upscope $end
$scope module ProcMem $end
$var wire 12 L addr [11:0] $end
$var wire 1 0 clk $end
$var wire 32 M dataIn [31:0] $end
$var wire 1 $ wEn $end
$var reg 32 N dataOut [31:0] $end
$var integer 32 O i [31:0] $end
$upscope $end
$scope module RegisterFile $end
$var wire 1 0 clock $end
$var wire 5 P ctrl_readRegA [4:0] $end
$var wire 5 Q ctrl_readRegB [4:0] $end
$var wire 1 5 ctrl_reset $end
$var wire 1 ) ctrl_writeEnable $end
$var wire 5 R ctrl_writeReg [4:0] $end
$var wire 32 S data_readRegA [31:0] $end
$var wire 32 T data_readRegB [31:0] $end
$var wire 32 U data_writeReg [31:0] $end
$var integer 32 V count [31:0] $end
$var integer 32 W i [31:0] $end
$upscope $end
$upscope $end
$enddefinitions $end
#0
$dumpvars
b100000 W
b100000 V
bz U
bx T
bx S
bz R
bz Q
bz P
b1000000000000 O
b0 N
bz M
bz L
b0 K
bz J
bx I
bx H
b0 G
b0 F
bz E
bz D
bz C
bz B
bz A
bz @
bz ?
b0 >
bx =
b0 <
b0 ;
bx :
b0 9
b10000000000000000000000000000011 8
07
06
15
b11111111 4
x3
bx 2
bx 1
00
b0 /
b0 .
bx -
bx ,
bz +
b0 *
z)
bz (
bz '
bz &
bz %
z$
bz #
bz "
bz !
$end
#1000
05
#10000
bx /
bx F
bx K
bx .
bx G
bx N
b1 9
10
#20000
00
#30000
b10 9
10
#40000
00
#50000
b11 9
10
#60000
00
#70000
b100 9
10
#80000
00
#90000
b101 9
10
#100000
00
#110000
b110 9
10
#120000
00
#130000
b111 9
10
#140000
00
#150000
b1000 9
10
#160000
00
#170000
b1001 9
10
#180000
00
#190000
b1010 9
10
#200000
00
#210000
b1011 9
10
#220000
00
#230000
b1100 9
10
#240000
00
#250000
b1101 9
10
#260000
00
#270000
b1110 9
10
#280000
00
#290000
b1111 9
10
#300000
00
#310000
b10000 9
10
#320000
00
#330000
b10001 9
10
#340000
00
#350000
b10010 9
10
#360000
00
#370000
b10011 9
10
#380000
00
#390000
b10100 9
10
#400000
00
#410000
b10101 9
10
#420000
00
#430000
b10110 9
10
#440000
00
#450000
b10111 9
10
#460000
00
#470000
b11000 9
10
#480000
00
#490000
b11001 9
10
#500000
00
#510000
b11010 9
10
#520000
00
#530000
b11011 9
10
#540000
00
#550000
b11100 9
10
#560000
00
#570000
b11101 9
10
#580000
00
#590000
b11110 9
10
#600000
00
#610000
b11111 9
10
#620000
00
#630000
b100000 9
10
#640000
00
#650000
b100001 9
10
#660000
00
#670000
b100010 9
10
#680000
00
#690000
b100011 9
10
#700000
00
#710000
b100100 9
10
#720000
00
#730000
b100101 9
10
#740000
00
#750000
b100110 9
10
#760000
00
#770000
b100111 9
10
#780000
00
#790000
b101000 9
10
#800000
00
#810000
b101001 9
10
#820000
00
#830000
b101010 9
10
#840000
00
#850000
b101011 9
10
#860000
00
#870000
b101100 9
10
#880000
00
#890000
b101101 9
10
#900000
00
#910000
b101110 9
10
#920000
00
#930000
b101111 9
10
#940000
00
#950000
b110000 9
10
#960000
00
#970000
b110001 9
10
#980000
00
#990000
b110010 9
10
#1000000
00
#1010000
b110011 9
10
#1020000
00
#1030000
b110100 9
10
#1040000
00
#1050000
b110101 9
10
#1060000
00
#1070000
b110110 9
10
#1080000
00
#1090000
b110111 9
10
#1100000
00
#1110000
b111000 9
10
#1120000
00
#1130000
b111001 9
10
#1140000
00
#1150000
b111010 9
10
#1160000
00
#1170000
b111011 9
10
#1180000
00
#1190000
b111100 9
10
#1200000
00
#1210000
b111101 9
10
#1220000
00
#1230000
b111110 9
10
#1240000
00
#1250000
b111111 9
10
#1260000
00
#1270000
b1000000 9
10
#1280000
00
#1290000
b1000001 9
10
#1300000
00
#1310000
b1000010 9
10
#1320000
00
#1330000
b1000011 9
10
#1340000
00
#1350000
b1000100 9
10
#1360000
00
#1370000
b1000101 9
10
#1380000
00
#1390000
b1000110 9
10
#1400000
00
#1410000
b1000111 9
10
#1420000
00
#1430000
b1001000 9
10
#1440000
00
#1450000
b1001001 9
10
#1460000
00
#1470000
b1001010 9
10
#1480000
00
#1490000
b1001011 9
10
#1500000
00
#1510000
b1001100 9
10
#1520000
00
#1530000
b1001101 9
10
#1540000
00
#1550000
b1001110 9
10
#1560000
00
#1570000
b1001111 9
10
#1580000
00
#1590000
b1010000 9
10
#1600000
00
#1610000
b1010001 9
10
#1620000
00
#1630000
b1010010 9
10
#1640000
00
#1650000
b1010011 9
10
#1660000
00
#1670000
b1010100 9
10
#1680000
00
#1690000
b1010101 9
10
#1700000
00
#1710000
b1010110 9
10
#1720000
00
#1730000
b1010111 9
10
#1740000
00
#1750000
b1011000 9
10
#1760000
00
#1770000
b1011001 9
10
#1780000
00
#1790000
b1011010 9
10
#1800000
00
#1810000
b1011011 9
10
#1820000
00
#1830000
b1011100 9
10
#1840000
00
#1850000
b1011101 9
10
#1860000
00
#1870000
b1011110 9
10
#1880000
00
#1890000
b1011111 9
10
#1900000
00
#1910000
b1100000 9
10
#1920000
00
#1930000
b1100001 9
10
#1940000
00
#1950000
b1100010 9
10
#1960000
00
#1970000
b1100011 9
10
#1980000
00
#1990000
b1100100 9
10
#2000000
00
#2010000
b1100101 9
10
#2020000
00
#2030000
b1100110 9
10
#2040000
00
#2050000
b1100111 9
10
#2060000
00
#2070000
b1101000 9
10
#2080000
00
#2090000
b1101001 9
10
#2100000
00
#2110000
b1101010 9
10
#2120000
00
#2130000
b1101011 9
10
#2140000
00
#2150000
b1101100 9
10
#2160000
00
#2170000
b1101101 9
10
#2180000
00
#2190000
b1101110 9
10
#2200000
00
#2210000
b1101111 9
10
#2220000
00
#2230000
b1110000 9
10
#2240000
00
#2250000
b1110001 9
10
#2260000
00
#2270000
b1110010 9
10
#2280000
00
#2290000
b1110011 9
10
#2300000
00
#2310000
b1110100 9
10
#2320000
00
#2330000
b1110101 9
10
#2340000
00
#2350000
b1110110 9
10
#2360000
00
#2370000
b1110111 9
10
#2380000
00
#2390000
b1111000 9
10
#2400000
00
#2410000
b1111001 9
10
#2420000
00
#2430000
b1111010 9
10
#2440000
00
#2450000
b1111011 9
10
#2460000
00
#2470000
b1111100 9
10
#2480000
00
#2490000
b1111101 9
10
#2500000
00
#2510000
b1111110 9
10
#2520000
00
#2530000
b1111111 9
10
#2540000
00
#2550000
b10000000 9
10
#2560000
00
#2570000
b10000001 9
10
#2580000
00
#2590000
b10000010 9
10
#2600000
00
#2610000
b10000011 9
10
#2620000
00
#2630000
b10000100 9
10
#2640000
00
#2650000
b10000101 9
10
#2660000
00
#2670000
b10000110 9
10
#2680000
00
#2690000
b10000111 9
10
#2700000
00
#2710000
b10001000 9
10
#2720000
00
#2730000
b10001001 9
10
#2740000
00
#2750000
b10001010 9
10
#2760000
00
#2770000
b10001011 9
10
#2780000
00
#2790000
b10001100 9
10
#2800000
00
#2810000
b10001101 9
10
#2820000
00
#2830000
b10001110 9
10
#2840000
00
#2850000
b10001111 9
10
#2860000
00
#2870000
b10010000 9
10
#2880000
00
#2890000
b10010001 9
10
#2900000
00
#2910000
b10010010 9
10
#2920000
00
#2930000
b10010011 9
10
#2940000
00
#2950000
b10010100 9
10
#2960000
00
#2970000
b10010101 9
10
#2980000
00
#2990000
b10010110 9
10
#3000000
00
#3010000
b10010111 9
10
#3020000
00
#3030000
b10011000 9
10
#3040000
00
#3050000
b10011001 9
10
#3060000
00
#3070000
b10011010 9
10
#3080000
00
#3090000
b10011011 9
10
#3100000
00
#3110000
b10011100 9
10
#3120000
00
#3130000
b10011101 9
10
#3140000
00
#3150000
b10011110 9
10
#3160000
00
#3170000
b10011111 9
10
#3180000
00
#3190000
b10100000 9
10
#3200000
00
#3210000
b10100001 9
10
#3220000
00
#3230000
b10100010 9
10
#3240000
00
#3250000
b10100011 9
10
#3260000
00
#3270000
b10100100 9
10
#3280000
00
#3290000
b10100101 9
10
#3300000
00
#3310000
b10100110 9
10
#3320000
00
#3330000
b10100111 9
10
#3340000
00
#3350000
b10101000 9
10
#3360000
00
#3370000
b10101001 9
10
#3380000
00
#3390000
b10101010 9
10
#3400000
00
#3410000
b10101011 9
10
#3420000
00
#3430000
b10101100 9
10
#3440000
00
#3450000
b10101101 9
10
#3460000
00
#3470000
b10101110 9
10
#3480000
00
#3490000
b10101111 9
10
#3500000
00
#3510000
b10110000 9
10
#3520000
00
#3530000
b10110001 9
10
#3540000
00
#3550000
b10110010 9
10
#3560000
00
#3570000
b10110011 9
10
#3580000
00
#3590000
b10110100 9
10
#3600000
00
#3610000
b10110101 9
10
#3620000
00
#3630000
b10110110 9
10
#3640000
00
#3650000
b10110111 9
10
#3660000
00
#3670000
b10111000 9
10
#3680000
00
#3690000
b10111001 9
10
#3700000
00
#3710000
b10111010 9
10
#3720000
00
#3730000
b10111011 9
10
#3740000
00
#3750000
b10111100 9
10
#3760000
00
#3770000
b10111101 9
10
#3780000
00
#3790000
b10111110 9
10
#3800000
00
#3810000
b10111111 9
10
#3820000
00
#3830000
b11000000 9
10
#3840000
00
#3850000
b11000001 9
10
#3860000
00
#3870000
b11000010 9
10
#3880000
00
#3890000
b11000011 9
10
#3900000
00
#3910000
b11000100 9
10
#3920000
00
#3930000
b11000101 9
10
#3940000
00
#3950000
b11000110 9
10
#3960000
00
#3970000
b11000111 9
10
#3980000
00
#3990000
b11001000 9
10
#4000000
00
#4010000
b11001001 9
10
#4020000
00
#4030000
b11001010 9
10
#4040000
00
#4050000
b11001011 9
10
#4060000
00
#4070000
b11001100 9
10
#4080000
00
#4090000
b11001101 9
10
#4100000
00
#4110000
b11001110 9
10
#4120000
00
#4130000
b11001111 9
10
#4140000
00
#4150000
b11010000 9
10
#4160000
00
#4170000
b11010001 9
10
#4180000
00
#4190000
b11010010 9
10
#4200000
00
#4210000
b11010011 9
10
#4220000
00
#4230000
b11010100 9
10
#4240000
00
#4250000
b11010101 9
10
#4260000
00
#4270000
b11010110 9
10
#4280000
00
#4290000
b11010111 9
10
#4300000
00
#4310000
b11011000 9
10
#4320000
00
#4330000
b11011001 9
10
#4340000
00
#4350000
b11011010 9
10
#4360000
00
#4370000
b11011011 9
10
#4380000
00
#4390000
b11011100 9
10
#4400000
00
#4410000
b11011101 9
10
#4420000
00
#4430000
b11011110 9
10
#4440000
00
#4450000
b11011111 9
10
#4460000
00
#4470000
b11100000 9
10
#4480000
00
#4490000
b11100001 9
10
#4500000
00
#4510000
b11100010 9
10
#4520000
00
#4530000
b11100011 9
10
#4540000
00
#4550000
b11100100 9
10
#4560000
00
#4570000
b11100101 9
10
#4580000
00
#4590000
b11100110 9
10
#4600000
00
#4610000
b11100111 9
10
#4620000
00
#4630000
b11101000 9
10
#4640000
00
#4650000
b11101001 9
10
#4660000
00
#4670000
b11101010 9
10
#4680000
00
#4690000
b11101011 9
10
#4700000
00
#4710000
b11101100 9
10
#4720000
00
#4730000
b11101101 9
10
#4740000
00
#4750000
b11101110 9
10
#4760000
00
#4770000
b11101111 9
10
#4780000
00
#4790000
b11110000 9
10
#4800000
00
#4810000
b11110001 9
10
#4820000
00
#4830000
b11110010 9
10
#4840000
00
#4850000
b11110011 9
10
#4860000
00
#4870000
b11110100 9
10
#4880000
00
#4890000
b11110101 9
10
#4900000
00
#4910000
b11110110 9
10
#4920000
00
#4930000
b11110111 9
10
#4940000
00
#4950000
b11111000 9
10
#4960000
00
#4970000
b11111001 9
10
#4980000
00
#4990000
b11111010 9
10
#5000000
00
#5010000
b11111011 9
10
#5020000
00
#5030000
b11111100 9
10
#5040000
00
#5050000
b11111101 9
10
#5060000
00
#5070000
b11111110 9
10
#5080000
00
#5090000
b0 -
b0 I
b0 S
b0 +
b0 P
16
b11111111 9
10
#5091000
b1 +
b1 P
b1 *
b1 >
#5092000
b10 +
b10 P
b10 *
b10 >
#5093000
b11 +
b11 P
b11 *
b11 >
#5094000
b100 +
b100 P
b100 *
b100 >
#5095000
b101 +
b101 P
b101 *
b101 >
#5096000
b110 +
b110 P
b110 *
b110 >
#5097000
b111 +
b111 P
b111 *
b111 >
#5098000
b1000 +
b1000 P
b1000 *
b1000 >
#5099000
b1001 +
b1001 P
b1001 *
b1001 >
#5100000
b1010 +
b1010 P
b1010 *
b1010 >
00
#5101000
b1011 +
b1011 P
b1011 *
b1011 >
#5102000
b1100 +
b1100 P
b1100 *
b1100 >
#5103000
b1101 +
b1101 P
b1101 *
b1101 >
#5104000
b1110 +
b1110 P
b1110 *
b1110 >
#5105000
b1111 +
b1111 P
b1111 *
b1111 >
#5106000
b10000 +
b10000 P
b10000 *
b10000 >
#5107000
b10001 +
b10001 P
b10001 *
b10001 >
#5108000
b10010 +
b10010 P
b10010 *
b10010 >
#5109000
b10011 +
b10011 P
b10011 *
b10011 >
#5110000
b10100 +
b10100 P
b10100 *
b10100 >
10
#5111000
b10101 +
b10101 P
b10101 *
b10101 >
#5112000
b10110 +
b10110 P
b10110 *
b10110 >
#5113000
b10111 +
b10111 P
b10111 *
b10111 >
#5114000
b11000 +
b11000 P
b11000 *
b11000 >
#5115000
b11001 +
b11001 P
b11001 *
b11001 >
#5116000
b11010 +
b11010 P
b11010 *
b11010 >
#5117000
b11011 +
b11011 P
b11011 *
b11011 >
#5118000
b11100 +
b11100 P
b11100 *
b11100 >
#5119000
b11101 +
b11101 P
b11101 *
b11101 >
#5120000
b11110 +
b11110 P
b11110 *
b11110 >
00
#5121000
b11111 +
b11111 P
b11111 *
b11111 >
#5122000
b0 +
b0 P
b0 *
b100000 >
